23011009.vcd
$date
	Wed May 28 00:37:16 2025
$end
$version
	Icarus Verilog
$end
$timescale
	1ns
$end
$scope module riscv_core_tb $end
$var reg 1 ! clk $end
$upscope $end
$scope module riscv_core_tb $end
$var reg 1 " rst $end
$upscope $end
$scope module riscv_core_tb $end
$var integer 32 # cycle [31:0] $end
$upscope $end
$scope module riscv_core_tb $end
$var integer 32 $ cycle_count [31:0] $end
$upscope $end
$scope module riscv_core_tb $end
$var integer 32 % count_index [31:0] $end
$upscope $end
$scope module riscv_core_tb $end
$scope module uut $end
$var wire 32 & pc [31:0] $end
$upscope $end
$upscope $end
$scope module riscv_core_tb $end
$scope module uut $end
$scope module rf $end
$var reg 32 ' \register[5] [31:0] $end
$upscope $end
$upscope $end
$upscope $end
$scope module riscv_core_tb $end
$scope module uut $end
$scope module rf $end
$var reg 32 ( \register[6] [31:0] $end
$upscope $end
$upscope $end
$upscope $end
$scope module riscv_core_tb $end
$scope module uut $end
$scope module rf $end
$var reg 32 ) \register[7] [31:0] $end
$upscope $end
$upscope $end
$upscope $end
$scope module riscv_core_tb $end
$scope module uut $end
$scope module rf $end
$var reg 32 * \register[8] [31:0] $end
$upscope $end
$upscope $end
$upscope $end
$scope module riscv_core_tb $end
$scope module uut $end
$scope module rf $end
$var reg 32 + \register[9] [31:0] $end
$upscope $end
$upscope $end
$upscope $end
$scope module riscv_core_tb $end
$scope module uut $end
$scope module rf $end
$var reg 32 , \register[10] [31:0] $end
$upscope $end
$upscope $end
$upscope $end
$scope module riscv_core_tb $end
$scope module uut $end
$scope module rf $end
$var reg 32 - \register[18] [31:0] $end
$upscope $end
$upscope $end
$upscope $end
$scope module riscv_core_tb $end
$scope module uut $end
$scope module rf $end
$var reg 32 . \register[19] [31:0] $end
$upscope $end
$upscope $end
$upscope $end
$scope module riscv_core_tb $end
$scope module uut $end
$scope module rf $end
$var reg 32 / \register[20] [31:0] $end
$upscope $end
$upscope $end
$upscope $end
$scope module riscv_core_tb $end
$scope module uut $end
$scope module rf $end
$var reg 32 0 \register[21] [31:0] $end
$upscope $end
$upscope $end
$upscope $end
$scope module riscv_core_tb $end
$scope module uut $end
$scope module rf $end
$var reg 32 1 \register[22] [31:0] $end
$upscope $end
$upscope $end
$upscope $end
$scope module riscv_core_tb $end
$scope module uut $end
$scope module rf $end
$var reg 32 2 \register[28] [31:0] $end
$upscope $end
$upscope $end
$upscope $end
$scope module riscv_core_tb $end
$scope module uut $end
$scope module rf $end
$var reg 32 3 \register[29] [31:0] $end
$upscope $end
$upscope $end
$upscope $end
$scope module riscv_core_tb $end
$scope module uut $end
$scope module rf $end
$var reg 32 4 \register[30] [31:0] $end
$upscope $end
$upscope $end
$upscope $end
$scope module riscv_core_tb $end
$scope module uut $end
$scope module rf $end
$var reg 32 5 \register[31] [31:0] $end
$upscope $end
$upscope $end
$upscope $end
$scope module riscv_core_tb $end
$scope module uut $end
$scope module dmem $end
$var wire 32 6 addr [31:0] $end
$upscope $end
$upscope $end
$upscope $end
$scope module riscv_core_tb $end
$var reg 32 7 \count_cycle_array[0] [31:0] $end
$upscope $end
$scope module riscv_core_tb $end
$var reg 32 8 \count_cycle_array[1] [31:0] $end
$upscope $end
$scope module riscv_core_tb $end
$var reg 32 9 \count_cycle_array[2] [31:0] $end
$upscope $end
$scope module riscv_core_tb $end
$var reg 32 : \count_cycle_array[3] [31:0] $end
$upscope $end
$scope module riscv_core_tb $end
$var reg 32 ; \count_cycle_array[4] [31:0] $end
$upscope $end
$scope module riscv_core_tb $end
$var reg 32 < \count_cycle_array[5] [31:0] $end
$upscope $end
$scope module riscv_core_tb $end
$var reg 32 = \count_cycle_array[6] [31:0] $end
$upscope $end
$scope module riscv_core_tb $end
$var reg 32 > \count_cycle_array[7] [31:0] $end
$upscope $end
$scope module riscv_core_tb $end
$var reg 32 ? \count_cycle_array[8] [31:0] $end
$upscope $end
$scope module riscv_core_tb $end
$var reg 32 @ \count_cycle_array[9] [31:0] $end
$upscope $end
$scope module riscv_core_tb $end
$var reg 32 A \count_cycle_array[10] [31:0] $end
$upscope $end
$scope module riscv_core_tb $end
$var reg 32 B \count_cycle_array[11] [31:0] $end
$upscope $end
$scope module riscv_core_tb $end
$var reg 32 C \count_cycle_array[12] [31:0] $end
$upscope $end
$scope module riscv_core_tb $end
$var reg 32 D \count_cycle_array[13] [31:0] $end
$upscope $end
$scope module riscv_core_tb $end
$var reg 32 E \count_cycle_array[14] [31:0] $end
$upscope $end
$scope module riscv_core_tb $end
$var reg 32 F \count_cycle_array[15] [31:0] $end
$upscope $end
$scope module riscv_core_tb $end
$var reg 32 G \count_cycle_array[16] [31:0] $end
$upscope $end
$scope module riscv_core_tb $end
$var reg 32 H \count_cycle_array[17] [31:0] $end
$upscope $end
$scope module riscv_core_tb $end
$var reg 32 I \count_cycle_array[18] [31:0] $end
$upscope $end
$scope module riscv_core_tb $end
$var reg 32 J \count_cycle_array[19] [31:0] $end
$upscope $end
$scope module riscv_core_tb $end
$var reg 32 K \data_array_temp[0] [31:0] $end
$upscope $end
$scope module riscv_core_tb $end
$var reg 32 L \data_array_temp[1] [31:0] $end
$upscope $end
$scope module riscv_core_tb $end
$var reg 32 M \data_array_temp[2] [31:0] $end
$upscope $end
$scope module riscv_core_tb $end
$var reg 32 N \data_array_temp[3] [31:0] $end
$upscope $end
$scope module riscv_core_tb $end
$var reg 32 O \data_array_temp[4] [31:0] $end
$upscope $end
$scope module riscv_core_tb $end
$var reg 32 P \data_array_temp[5] [31:0] $end
$upscope $end
$scope module riscv_core_tb $end
$var reg 32 Q \data_array_temp[6] [31:0] $end
$upscope $end
$scope module riscv_core_tb $end
$var reg 32 R \data_array_temp[7] [31:0] $end
$upscope $end
$scope module riscv_core_tb $end
$var reg 32 S \data_array_temp[8] [31:0] $end
$upscope $end
$scope module riscv_core_tb $end
$var reg 32 T \data_array_temp[9] [31:0] $end
$upscope $end
$scope module riscv_core_tb $end
$var reg 32 U \data_array_temp[10] [31:0] $end
$upscope $end
$scope module riscv_core_tb $end
$var reg 32 V \data_array_temp[11] [31:0] $end
$upscope $end
$scope module riscv_core_tb $end
$var reg 32 W \data_array_temp[12] [31:0] $end
$upscope $end
$scope module riscv_core_tb $end
$var reg 32 X \data_array_temp[13] [31:0] $end
$upscope $end
$scope module riscv_core_tb $end
$var reg 32 Y \data_array_temp[14] [31:0] $end
$upscope $end
$scope module riscv_core_tb $end
$var reg 32 Z \data_array_temp[15] [31:0] $end
$upscope $end
$scope module riscv_core_tb $end
$var reg 32 [ \data_array_temp[16] [31:0] $end
$upscope $end
$scope module riscv_core_tb $end
$var reg 32 \ \data_array_temp[17] [31:0] $end
$upscope $end
$scope module riscv_core_tb $end
$var reg 32 ] \data_array_temp[18] [31:0] $end
$upscope $end
$scope module riscv_core_tb $end
$var reg 32 ^ \data_array_temp[19] [31:0] $end
$upscope $end
$scope module riscv_core_tb $end
$var reg 32 _ \data_array_temp[20] [31:0] $end
$upscope $end
$scope module riscv_core_tb $end
$var reg 32 ` \data_array_temp[21] [31:0] $end
$upscope $end
$scope module riscv_core_tb $end
$var reg 32 a \data_array_temp[22] [31:0] $end
$upscope $end
$scope module riscv_core_tb $end
$var reg 32 b \data_array_temp[23] [31:0] $end
$upscope $end
$scope module riscv_core_tb $end
$var reg 32 c \data_array_temp[24] [31:0] $end
$upscope $end
$scope module riscv_core_tb $end
$var reg 32 d \data_array_temp[25] [31:0] $end
$upscope $end
$scope module riscv_core_tb $end
$var reg 32 e \data_array_temp[26] [31:0] $end
$upscope $end
$scope module riscv_core_tb $end
$var reg 32 f \data_array_temp[27] [31:0] $end
$upscope $end
$scope module riscv_core_tb $end
$var reg 32 g \data_array_temp[28] [31:0] $end
$upscope $end
$scope module riscv_core_tb $end
$var reg 32 h \data_array_temp[29] [31:0] $end
$upscope $end
$scope module riscv_core_tb $end
$var reg 32 i \data_array_temp[30] [31:0] $end
$upscope $end
$scope module riscv_core_tb $end
$var reg 32 j \data_array_temp[31] [31:0] $end
$upscope $end
$scope module riscv_core_tb $end
$var reg 32 k \data_array_temp[32] [31:0] $end
$upscope $end
$scope module riscv_core_tb $end
$var reg 32 l \data_array_temp[33] [31:0] $end
$upscope $end
$scope module riscv_core_tb $end
$var reg 32 m \data_array_temp[34] [31:0] $end
$upscope $end
$scope module riscv_core_tb $end
$var reg 32 n \data_array_temp[35] [31:0] $end
$upscope $end
$scope module riscv_core_tb $end
$var reg 32 o \data_array_temp[36] [31:0] $end
$upscope $end
$scope module riscv_core_tb $end
$var reg 32 p \data_array_temp[37] [31:0] $end
$upscope $end
$scope module riscv_core_tb $end
$var reg 32 q \data_array_temp[38] [31:0] $end
$upscope $end
$scope module riscv_core_tb $end
$var reg 32 r \data_array_temp[39] [31:0] $end
$upscope $end
$enddefinitions $end
$comment Show the parameter values. $end
$dumpall
$end
#0
$dumpvars
bx r
bx q
bx p
bx o
bx n
bx m
bx l
bx k
bx j
bx i
bx h
bx g
bx f
bx e
bx d
bx c
bx b
bx a
bx `
bx _
bx ^
bx ]
bx \
bx [
bx Z
bx Y
bx X
bx W
bx V
bx U
bx T
bx S
bx R
bx Q
bx P
bx O
bx N
bx M
bx L
bx K
b0 J
b0 I
b0 H
b0 G
b0 F
b0 E
b0 D
b0 C
b0 B
b0 A
b0 @
b0 ?
b0 >
b0 =
b0 <
b0 ;
b0 :
b0 9
b0 8
b0 7
bx 6
bx 5
bx 4
bx 3
bx 2
bx 1
bx 0
bx /
bx .
bx -
bx ,
bx +
bx *
bx )
bx (
bx '
bx &
b11111111111111111111111111111111 %
b0 $
b0 #
1"
0!
$end
#5
b0 6
b0 &
b0 5
b0 4
b0 3
b0 2
b0 1
b0 0
b0 /
b0 .
b0 -
b0 ,
b0 +
b0 *
b0 )
b0 (
b0 '
b1 $
1!
#10
0!
#15
b10 $
b0 5
b0 4
b0 3
b0 2
b0 1
b0 0
b0 /
b0 .
b0 -
b0 ,
b0 +
b0 *
b0 )
b0 (
b0 '
1!
#20
bx r
bx q
bx p
bx o
bx n
bx m
bx l
bx k
bx j
bx i
bx h
bx g
bx f
bx e
bx d
bx c
bx b
bx a
bx `
bx _
b11000000000000000000000000000011 ^
b11001101011101101110110100110000 ]
b10011000010100010011100100010100 \
b100100101110110111101101001000 [
b1101101100000001111100110011 Z
b10100101010100001001001000011110 Y
b10001100111011111111011100110001 X
b11000111101101010010000101101001 W
b11111111111111111111111111111110 V
b1111111111111111111111111111111 U
b11111111111111111111111111111111 T
b10011001100110011001100110011001 S
b1101100100010010110010110010100 R
b11011110110000101000011111011001 Q
b1010001110000000110010001100000 P
b10000000000000000000000000000000 O
b10000000000000000000000 N
b1000000000 M
b1 L
b0 K
0!
0"
#25
b10100 6
b100 &
b0 (
b1 #
b11 $
1!
#30
0!
#35
b1010000 6
b100 $
b10 #
b10100 .
b1000 &
1!
#40
0!
#45
b100000 6
b1100 &
b1010000 0
b11 #
b101 $
1!
#50
0!
#55
b11111111111111111111111111101100 6
b110 $
b100 #
b100000 /
b10000 &
1!
#60
0!
#65
b0 6
b10100 &
b101 #
b0 $
b0 %
1!
#70
0!
#75
b1 $
b110 #
b0 2
b11000 &
1!
#80
0!
#85
b11100 &
b0 4
b111 #
b10 $
1!
#90
0!
#95
b11 $
b1000 #
b0 5
b100000 &
1!
#100
0!
#105
b1 6
b100100 &
b0 -
b1001 #
b100 $
1!
#110
0!
#115
b0 6
b101 $
b1010 #
b1 '
b101000 &
1!
#120
0!
#125
b11111111111111111111111111100000 6
b101100 &
b0 3
b1011 #
b110 $
1!
#130
0!
#135
b10 6
b111 $
b1100 #
b110000 &
1!
#140
0!
#145
b1 6
b110100 &
b10 '
b1101 #
b1000 $
1!
#150
0!
#155
b0 6
b1001 $
b1110 #
b1 -
b111000 &
1!
#160
0!
#165
b1000000 &
b1111 #
b1010 $
1!
#170
0!
#175
b1011 $
b10000 #
b1000100 )
b101000 &
1!
#180
0!
#185
b11111111111111111111111111100001 6
b101100 &
b0 3
b10001 #
b1100 $
1!
#190
0!
#195
b100 6
b1101 $
b10010 #
b110000 &
1!
#200
0!
#205
b10 6
b110100 &
b100 '
b10011 #
b1110 $
1!
#210
0!
#215
b0 6
b1111 $
b10100 #
b10 -
b111000 &
1!
#220
0!
#225
b1000000 &
b10101 #
b10000 $
1!
#230
0!
#235
b10001 $
b10110 #
b1000100 )
b101000 &
1!
#240
0!
#245
b11111111111111111111111111100010 6
b101100 &
b0 3
b10111 #
b10010 $
1!
#250
0!
#255
b1000 6
b10011 $
b11000 #
b110000 &
1!
#260
0!
#265
b11 6
b110100 &
b1000 '
b11001 #
b10100 $
1!
#270
0!
#275
b0 6
b10101 $
b11010 #
b11 -
b111000 &
1!
#280
0!
#285
b1000000 &
b11011 #
b10110 $
1!
#290
0!
#295
b10111 $
b11100 #
b1000100 )
b101000 &
1!
#300
0!
#305
b11111111111111111111111111100011 6
b101100 &
b0 3
b11101 #
b11000 $
1!
#310
0!
#315
b10000 6
b11001 $
b11110 #
b110000 &
1!
#320
0!
#325
b100 6
b110100 &
b10000 '
b11111 #
b11010 $
1!
#330
0!
#335
b0 6
b11011 $
b100000 #
b100 -
b111000 &
1!
#340
0!
#345
b1000000 &
b100001 #
b11100 $
1!
#350
0!
#355
b11101 $
b100010 #
b1000100 )
b101000 &
1!
#360
0!
#365
b11111111111111111111111111100100 6
b101100 &
b0 3
b100011 #
b11110 $
1!
#370
0!
#375
b100000 6
b11111 $
b100100 #
b110000 &
1!
#380
0!
#385
b101 6
b110100 &
b100000 '
b100101 #
b100000 $
1!
#390
0!
#395
b0 6
b100001 $
b100110 #
b101 -
b111000 &
1!
#400
0!
#405
b1000000 &
b100111 #
b100010 $
1!
#410
0!
#415
b100011 $
b101000 #
b1000100 )
b101000 &
1!
#420
0!
#425
b11111111111111111111111111100101 6
b101100 &
b0 3
b101001 #
b100100 $
1!
#430
0!
#435
b1000000 6
b100101 $
b101010 #
b110000 &
1!
#440
0!
#445
b110 6
b110100 &
b1000000 '
b101011 #
b100110 $
1!
#450
0!
#455
b0 6
b100111 $
b101100 #
b110 -
b111000 &
1!
#460
0!
#465
b1000000 &
b101101 #
b101000 $
1!
#470
0!
#475
b101001 $
b101110 #
b1000100 )
b101000 &
1!
#480
0!
#485
b11111111111111111111111111100110 6
b101100 &
b0 3
b101111 #
b101010 $
1!
#490
0!
#495
b10000000 6
b101011 $
b110000 #
b110000 &
1!
#500
0!
#505
b111 6
b110100 &
b10000000 '
b110001 #
b101100 $
1!
#510
0!
#515
b0 6
b101101 $
b110010 #
b111 -
b111000 &
1!
#520
0!
#525
b1000000 &
b110011 #
b101110 $
1!
#530
0!
#535
b101111 $
b110100 #
b1000100 )
b101000 &
1!
#540
0!
#545
b11111111111111111111111111100111 6
b101100 &
b0 3
b110101 #
b110000 $
1!
#550
0!
#555
b100000000 6
b110001 $
b110110 #
b110000 &
1!
#560
0!
#565
b1000 6
b110100 &
b100000000 '
b110111 #
b110010 $
1!
#570
0!
#575
b0 6
b110011 $
b111000 #
b1000 -
b111000 &
1!
#580
0!
#585
b1000000 &
b111001 #
b110100 $
1!
#590
0!
#595
b110101 $
b111010 #
b1000100 )
b101000 &
1!
#600
0!
#605
b11111111111111111111111111101000 6
b101100 &
b0 3
b111011 #
b110110 $
1!
#610
0!
#615
b1000000000 6
b110111 $
b111100 #
b110000 &
1!
#620
0!
#625
b1001 6
b110100 &
b1000000000 '
b111101 #
b111000 $
1!
#630
0!
#635
b0 6
b111001 $
b111110 #
b1001 -
b111000 &
1!
#640
0!
#645
b1000000 &
b111111 #
b111010 $
1!
#650
0!
#655
b111011 $
b1000000 #
b1000100 )
b101000 &
1!
#660
0!
#665
b11111111111111111111111111101001 6
b101100 &
b0 3
b1000001 #
b111100 $
1!
#670
0!
#675
b10000000000 6
b111101 $
b1000010 #
b110000 &
1!
#680
0!
#685
b1010 6
b110100 &
b10000000000 '
b1000011 #
b111110 $
1!
#690
0!
#695
b0 6
b111111 $
b1000100 #
b1010 -
b111000 &
1!
#700
0!
#705
b1000000 &
b1000101 #
b1000000 $
1!
#710
0!
#715
b1000001 $
b1000110 #
b1000100 )
b101000 &
1!
#720
0!
#725
b11111111111111111111111111101010 6
b101100 &
b0 3
b1000111 #
b1000010 $
1!
#730
0!
#735
b100000000000 6
b1000011 $
b1001000 #
b110000 &
1!
#740
0!
#745
b1011 6
b110100 &
b100000000000 '
b1001001 #
b1000100 $
1!
#750
0!
#755
b0 6
b1000101 $
b1001010 #
b1011 -
b111000 &
1!
#760
0!
#765
b1000000 &
b1001011 #
b1000110 $
1!
#770
0!
#775
b1000111 $
b1001100 #
b1000100 )
b101000 &
1!
#780
0!
#785
b11111111111111111111111111101011 6
b101100 &
b0 3
b1001101 #
b1001000 $
1!
#790
0!
#795
b1000000000000 6
b1001001 $
b1001110 #
b110000 &
1!
#800
0!
#805
b1100 6
b110100 &
b1000000000000 '
b1001111 #
b1001010 $
1!
#810
0!
#815
b0 6
b1001011 $
b1010000 #
b1100 -
b111000 &
1!
#820
0!
#825
b1000000 &
b1010001 #
b1001100 $
1!
#830
0!
#835
b1001101 $
b1010010 #
b1000100 )
b101000 &
1!
#840
0!
#845
b11111111111111111111111111101100 6
b101100 &
b0 3
b1010011 #
b1001110 $
1!
#850
0!
#855
b10000000000000 6
b1001111 $
b1010100 #
b110000 &
1!
#860
0!
#865
b1101 6
b110100 &
b10000000000000 '
b1010101 #
b1010000 $
1!
#870
0!
#875
b0 6
b1010001 $
b1010110 #
b1101 -
b111000 &
1!
#880
0!
#885
b1000000 &
b1010111 #
b1010010 $
1!
#890
0!
#895
b1010011 $
b1011000 #
b1000100 )
b101000 &
1!
#900
0!
#905
b11111111111111111111111111101101 6
b101100 &
b0 3
b1011001 #
b1010100 $
1!
#910
0!
#915
b100000000000000 6
b1010101 $
b1011010 #
b110000 &
1!
#920
0!
#925
b1110 6
b110100 &
b100000000000000 '
b1011011 #
b1010110 $
1!
#930
0!
#935
b0 6
b1010111 $
b1011100 #
b1110 -
b111000 &
1!
#940
0!
#945
b1000000 &
b1011101 #
b1011000 $
1!
#950
0!
#955
b1011001 $
b1011110 #
b1000100 )
b101000 &
1!
#960
0!
#965
b11111111111111111111111111101110 6
b101100 &
b0 3
b1011111 #
b1011010 $
1!
#970
0!
#975
b1000000000000000 6
b1011011 $
b1100000 #
b110000 &
1!
#980
0!
#985
b1111 6
b110100 &
b1000000000000000 '
b1100001 #
b1011100 $
1!
#990
0!
#995
b0 6
b1011101 $
b1100010 #
b1111 -
b111000 &
1!
#1000
0!
#1005
b1000000 &
b1100011 #
b1011110 $
1!
#1010
0!
#1015
b1011111 $
b1100100 #
b1000100 )
b101000 &
1!
#1020
0!
#1025
b11111111111111111111111111101111 6
b101100 &
b0 3
b1100101 #
b1100000 $
1!
#1030
0!
#1035
b10000000000000000 6
b1100001 $
b1100110 #
b110000 &
1!
#1040
0!
#1045
b10000 6
b110100 &
b10000000000000000 '
b1100111 #
b1100010 $
1!
#1050
0!
#1055
b0 6
b1100011 $
b1101000 #
b10000 -
b111000 &
1!
#1060
0!
#1065
b1000000 &
b1101001 #
b1100100 $
1!
#1070
0!
#1075
b1100101 $
b1101010 #
b1000100 )
b101000 &
1!
#1080
0!
#1085
b11111111111111111111111111110000 6
b101100 &
b0 3
b1101011 #
b1100110 $
1!
#1090
0!
#1095
b100000000000000000 6
b1100111 $
b1101100 #
b110000 &
1!
#1100
0!
#1105
b10001 6
b110100 &
b100000000000000000 '
b1101101 #
b1101000 $
1!
#1110
0!
#1115
b0 6
b1101001 $
b1101110 #
b10001 -
b111000 &
1!
#1120
0!
#1125
b1000000 &
b1101111 #
b1101010 $
1!
#1130
0!
#1135
b1101011 $
b1110000 #
b1000100 )
b101000 &
1!
#1140
0!
#1145
b11111111111111111111111111110001 6
b101100 &
b0 3
b1110001 #
b1101100 $
1!
#1150
0!
#1155
b1000000000000000000 6
b1101101 $
b1110010 #
b110000 &
1!
#1160
0!
#1165
b10010 6
b110100 &
b1000000000000000000 '
b1110011 #
b1101110 $
1!
#1170
0!
#1175
b0 6
b1101111 $
b1110100 #
b10010 -
b111000 &
1!
#1180
0!
#1185
b1000000 &
b1110101 #
b1110000 $
1!
#1190
0!
#1195
b1110001 $
b1110110 #
b1000100 )
b101000 &
1!
#1200
0!
#1205
b11111111111111111111111111110010 6
b101100 &
b0 3
b1110111 #
b1110010 $
1!
#1210
0!
#1215
b10000000000000000000 6
b1110011 $
b1111000 #
b110000 &
1!
#1220
0!
#1225
b10011 6
b110100 &
b10000000000000000000 '
b1111001 #
b1110100 $
1!
#1230
0!
#1235
b0 6
b1110101 $
b1111010 #
b10011 -
b111000 &
1!
#1240
0!
#1245
b1000000 &
b1111011 #
b1110110 $
1!
#1250
0!
#1255
b1110111 $
b1111100 #
b1000100 )
b101000 &
1!
#1260
0!
#1265
b11111111111111111111111111110011 6
b101100 &
b0 3
b1111101 #
b1111000 $
1!
#1270
0!
#1275
b100000000000000000000 6
b1111001 $
b1111110 #
b110000 &
1!
#1280
0!
#1285
b10100 6
b110100 &
b100000000000000000000 '
b1111111 #
b1111010 $
1!
#1290
0!
#1295
b0 6
b1111011 $
b10000000 #
b10100 -
b111000 &
1!
#1300
0!
#1305
b1000000 &
b10000001 #
b1111100 $
1!
#1310
0!
#1315
b1111101 $
b10000010 #
b1000100 )
b101000 &
1!
#1320
0!
#1325
b11111111111111111111111111110100 6
b101100 &
b0 3
b10000011 #
b1111110 $
1!
#1330
0!
#1335
b1000000000000000000000 6
b1111111 $
b10000100 #
b110000 &
1!
#1340
0!
#1345
b10101 6
b110100 &
b1000000000000000000000 '
b10000101 #
b10000000 $
1!
#1350
0!
#1355
b0 6
b10000001 $
b10000110 #
b10101 -
b111000 &
1!
#1360
0!
#1365
b1000000 &
b10000111 #
b10000010 $
1!
#1370
0!
#1375
b10000011 $
b10001000 #
b1000100 )
b101000 &
1!
#1380
0!
#1385
b11111111111111111111111111110101 6
b101100 &
b0 3
b10001001 #
b10000100 $
1!
#1390
0!
#1395
b10000000000000000000000 6
b10000101 $
b10001010 #
b110000 &
1!
#1400
0!
#1405
b10110 6
b110100 &
b10000000000000000000000 '
b10001011 #
b10000110 $
1!
#1410
0!
#1415
b0 6
b10000111 $
b10001100 #
b10110 -
b111000 &
1!
#1420
0!
#1425
b1000000 &
b10001101 #
b10001000 $
1!
#1430
0!
#1435
b10001001 $
b10001110 #
b1000100 )
b101000 &
1!
#1440
0!
#1445
b11111111111111111111111111110110 6
b101100 &
b0 3
b10001111 #
b10001010 $
1!
#1450
0!
#1455
b100000000000000000000000 6
b10001011 $
b10010000 #
b110000 &
1!
#1460
0!
#1465
b10111 6
b110100 &
b100000000000000000000000 '
b10010001 #
b10001100 $
1!
#1470
0!
#1475
b0 6
b10001101 $
b10010010 #
b10111 -
b111000 &
1!
#1480
0!
#1485
b1000000 &
b10010011 #
b10001110 $
1!
#1490
0!
#1495
b10001111 $
b10010100 #
b1000100 )
b101000 &
1!
#1500
0!
#1505
b11111111111111111111111111110111 6
b101100 &
b0 3
b10010101 #
b10010000 $
1!
#1510
0!
#1515
b1000000000000000000000000 6
b10010001 $
b10010110 #
b110000 &
1!
#1520
0!
#1525
b11000 6
b110100 &
b1000000000000000000000000 '
b10010111 #
b10010010 $
1!
#1530
0!
#1535
b0 6
b10010011 $
b10011000 #
b11000 -
b111000 &
1!
#1540
0!
#1545
b1000000 &
b10011001 #
b10010100 $
1!
#1550
0!
#1555
b10010101 $
b10011010 #
b1000100 )
b101000 &
1!
#1560
0!
#1565
b11111111111111111111111111111000 6
b101100 &
b0 3
b10011011 #
b10010110 $
1!
#1570
0!
#1575
b10000000000000000000000000 6
b10010111 $
b10011100 #
b110000 &
1!
#1580
0!
#1585
b11001 6
b110100 &
b10000000000000000000000000 '
b10011101 #
b10011000 $
1!
#1590
0!
#1595
b0 6
b10011001 $
b10011110 #
b11001 -
b111000 &
1!
#1600
0!
#1605
b1000000 &
b10011111 #
b10011010 $
1!
#1610
0!
#1615
b10011011 $
b10100000 #
b1000100 )
b101000 &
1!
#1620
0!
#1625
b11111111111111111111111111111001 6
b101100 &
b0 3
b10100001 #
b10011100 $
1!
#1630
0!
#1635
b100000000000000000000000000 6
b10011101 $
b10100010 #
b110000 &
1!
#1640
0!
#1645
b11010 6
b110100 &
b100000000000000000000000000 '
b10100011 #
b10011110 $
1!
#1650
0!
#1655
b0 6
b10011111 $
b10100100 #
b11010 -
b111000 &
1!
#1660
0!
#1665
b1000000 &
b10100101 #
b10100000 $
1!
#1670
0!
#1675
b10100001 $
b10100110 #
b1000100 )
b101000 &
1!
#1680
0!
#1685
b11111111111111111111111111111010 6
b101100 &
b0 3
b10100111 #
b10100010 $
1!
#1690
0!
#1695
b1000000000000000000000000000 6
b10100011 $
b10101000 #
b110000 &
1!
#1700
0!
#1705
b11011 6
b110100 &
b1000000000000000000000000000 '
b10101001 #
b10100100 $
1!
#1710
0!
#1715
b0 6
b10100101 $
b10101010 #
b11011 -
b111000 &
1!
#1720
0!
#1725
b1000000 &
b10101011 #
b10100110 $
1!
#1730
0!
#1735
b10100111 $
b10101100 #
b1000100 )
b101000 &
1!
#1740
0!
#1745
b11111111111111111111111111111011 6
b101100 &
b0 3
b10101101 #
b10101000 $
1!
#1750
0!
#1755
b10000000000000000000000000000 6
b10101001 $
b10101110 #
b110000 &
1!
#1760
0!
#1765
b11100 6
b110100 &
b10000000000000000000000000000 '
b10101111 #
b10101010 $
1!
#1770
0!
#1775
b0 6
b10101011 $
b10110000 #
b11100 -
b111000 &
1!
#1780
0!
#1785
b1000000 &
b10110001 #
b10101100 $
1!
#1790
0!
#1795
b10101101 $
b10110010 #
b1000100 )
b101000 &
1!
#1800
0!
#1805
b11111111111111111111111111111100 6
b101100 &
b0 3
b10110011 #
b10101110 $
1!
#1810
0!
#1815
b100000000000000000000000000000 6
b10101111 $
b10110100 #
b110000 &
1!
#1820
0!
#1825
b11101 6
b110100 &
b100000000000000000000000000000 '
b10110101 #
b10110000 $
1!
#1830
0!
#1835
b0 6
b10110001 $
b10110110 #
b11101 -
b111000 &
1!
#1840
0!
#1845
b1000000 &
b10110111 #
b10110010 $
1!
#1850
0!
#1855
b10110011 $
b10111000 #
b1000100 )
b101000 &
1!
#1860
0!
#1865
b11111111111111111111111111111101 6
b101100 &
b0 3
b10111001 #
b10110100 $
1!
#1870
0!
#1875
b1000000000000000000000000000000 6
b10110101 $
b10111010 #
b110000 &
1!
#1880
0!
#1885
b11110 6
b110100 &
b1000000000000000000000000000000 '
b10111011 #
b10110110 $
1!
#1890
0!
#1895
b0 6
b10110111 $
b10111100 #
b11110 -
b111000 &
1!
#1900
0!
#1905
b1000000 &
b10111101 #
b10111000 $
1!
#1910
0!
#1915
b10111001 $
b10111110 #
b1000100 )
b101000 &
1!
#1920
0!
#1925
b11111111111111111111111111111110 6
b101100 &
b0 3
b10111111 #
b10111010 $
1!
#1930
0!
#1935
b10000000000000000000000000000000 6
b10111011 $
b11000000 #
b110000 &
1!
#1940
0!
#1945
b11111 6
b110100 &
b10000000000000000000000000000000 '
b11000001 #
b10111100 $
1!
#1950
0!
#1955
b0 6
b10111101 $
b11000010 #
b11111 -
b111000 &
1!
#1960
0!
#1965
b1000000 &
b11000011 #
b10111110 $
1!
#1970
0!
#1975
b10111111 $
b11000100 #
b1000100 )
b101000 &
1!
#1980
0!
#1985
b11111111111111111111111111111111 6
b101100 &
b0 3
b11000101 #
b11000000 $
1!
#1990
0!
#1995
b0 6
b11000001 $
b11000110 #
b110000 &
1!
#2000
0!
#2005
b100000 6
b110100 &
b0 '
b11000111 #
b11000010 $
1!
#2010
0!
#2015
b0 6
b11000011 $
b11001000 #
b100000 -
b111000 &
1!
#2020
0!
#2025
b1000000 &
b11001001 #
b11000100 $
1!
#2030
0!
#2035
b11000101 $
b11001010 #
b1000100 )
b101000 &
1!
#2040
0!
#2045
b0 6
b101100 &
b0 3
b11001011 #
b11000110 $
1!
#2050
0!
#2055
b1010000 6
b11000111 $
b11001100 #
b1000100 &
1!
#2060
0!
#2065
b1010000 6
b1001000 &
b1010000 1
b11001101 #
b11001000 $
1!
#2070
0!
#2075
b1 6
bx r
bx q
bx p
bx o
bx n
bx m
bx l
bx k
bx j
bx i
bx h
bx g
bx f
bx e
bx d
bx c
bx b
bx a
bx `
b0 _
b11000000000000000000000000000011 ^
b11001101011101101110110100110000 ]
b10011000010100010011100100010100 \
b100100101110110111101101001000 [
b1101101100000001111100110011 Z
b10100101010100001001001000011110 Y
b10001100111011111111011100110001 X
b11000111101101010010000101101001 W
b11111111111111111111111111111110 V
b1111111111111111111111111111111 U
b11111111111111111111111111111111 T
b10011001100110011001100110011001 S
b1101100100010010110010110010100 R
b11011110110000101000011111011001 Q
b1010001110000000110010001100000 P
b10000000000000000000000000000000 O
b10000000000000000000000 N
b1000000000 M
b1 L
b0 K
b11001001 $
b11001110 #
b1001100 &
1!
#2080
0!
#2085
b0 6
b1010000 &
b1 (
b11001111 #
b11001010 $
1!
#2090
0!
#2095
b11111111111111111111111111101101 6
b11001011 $
b11010000 #
b1010100 )
b10000 &
1!
#2100
0!
#2105
b100 6
b10100 &
b11010001 #
b0 $
b11001011 7
b1 %
1!
#2110
0!
#2115
b1 $
b11010010 #
b100 2
b11000 &
1!
#2120
0!
#2125
b0 6
b11100 &
b1 4
b11010011 #
b10 $
1!
#2130
0!
#2135
b11 $
b11010100 #
b0 5
b100000 &
1!
#2140
0!
#2145
b1 6
b100100 &
b0 -
b11010101 #
b100 $
1!
#2150
0!
#2155
b101 $
b11010110 #
b1 '
b101000 &
1!
#2160
0!
